﻿Country,AT,BE,BG,CH,CY,CZ,DE,DK,EE,EL,ES,FI,FR,HR,HU,IE,IT,LT,LU,LV,MT,NL,PT,RO,SE,SI,SK,UK,EU
emp_agriculture_var[%],0.30,22.48,18.25,2.07,22.53,10.13,1.40,20.47,-0.06,4.01,4.61,3.59,4.44,0.81,2.76,12.52,6.68,48.83,5.35,0.44,0.45,8.89,0.49,32.45,8.24,-1.57,2.16,11.09,6.27
emp_energy_var[%],-19.19,-16.01,-43.69,-0.31,-7.66,-14.45,-14.03,-28.14,-27.71,-6.62,-7.55,-23.32,-25.04,-8.42,-13.55,1.80,-20.73,-36.26,-28.89,-3.36,342.21,-11.83,-24.53,-38.82,-28.51,-12.52,-22.95,-14.32,-15.25
emp_industry_var[%],0.95,3.18,2.09,-0.03,-5.28,0.01,0.29,3.05,0.74,2.86,1.62,2.96,2.15,0.51,0.54,6.25,0.40,2.76,-1.25,4.53,2.11,1.26,1.77,2.71,-0.03,1.99,3.79,0.99,1.24
emp_services_var[%],-0.77,-1.21,-1.25,-0.49,0.14,-0.40,-0.40,-1.41,-0.47,-0.91,-0.89,-1.97,-0.97,-0.28,-0.36,-3.96,-0.44,-1.64,-0.41,-2.63,-1.93,-0.70,-1.23,-1.47,-0.42,-1.04,-2.26,-0.60,-0.81
emp_skilled_var[%],0.00,0.03,0.03,-0.02,-0.10,-0.01,-0.05,0.05,0.06,-0.02,0.00,0.05,0.03,-0.01,-0.01,0.19,-0.02,0.06,-0.01,0.08,-0.05,-0.01,0.03,0.03,-0.03,0.08,0.12,-0.02,0.00
emp_total_var[%],0.00,0.03,0.03,-0.02,-0.10,-0.01,-0.05,0.05,0.06,-0.02,0.00,0.05,0.03,-0.01,-0.01,0.19,-0.02,0.06,-0.01,0.08,-0.05,-0.01,0.03,0.03,-0.03,0.08,0.12,-0.02,0.00
emp_transport_var[%],5.31,1.76,-7.94,6.29,7.63,1.63,2.56,4.67,2.58,4.43,2.62,3.37,2.85,0.80,0.42,11.30,1.05,-10.02,7.78,2.71,-4.60,2.23,2.15,0.77,2.69,3.06,0.42,3.45,2.82
emp_unskilled_var[%],0.00,0.03,0.03,-0.02,-0.10,-0.01,-0.05,0.05,0.06,-0.02,0.00,0.05,0.03,-0.01,-0.01,0.19,-0.02,0.06,-0.01,0.08,-0.05,-0.01,0.03,0.03,-0.03,0.08,0.12,-0.02,0.00
emp_wages-skilled_var[%],0.58,0.98,0.85,0.37,-0.95,0.36,0.73,0.58,0.31,0.83,0.75,1.94,1.28,0.31,0.25,3.85,0.91,0.36,-0.50,2.69,0.16,0.70,1.34,0.91,0.10,1.04,1.83,0.77,0.94
emp_wages-unskilled_var[%],1.14,1.98,2.96,0.71,-1.75,0.92,1.20,1.85,0.63,1.50,1.42,3.45,2.37,0.52,0.66,7.29,1.51,3.20,-0.24,4.91,0.70,1.62,2.47,2.51,0.39,1.78,3.57,1.49,1.83
