﻿Country,AT,BE,BG,CH,CY,CZ,DE,DK,EE,EL,ES,FI,FR,HR,HU,IE,IT,LT,LU,LV,MT,NL,PT,RO,SE,SI,SK,UK,EU
emp_agriculture_var[%],-10.52,1.22,-2.21,1.98,-19.41,-1.74,-5.72,5.22,-11.18,-14.90,-20.12,-3.29,-21.64,0.33,-10.08,-10.78,-22.66,37.28,1.39,-15.04,-15.59,-6.93,-20.85,-15.61,-9.97,-35.43,-8.60,-1.57,-13.56
emp_energy_var[%],-5.91,-11.77,-58.11,-10.65,-83.30,-37.91,-16.97,-30.67,-11.19,-53.37,-40.04,-72.57,-53.10,-27.13,-31.85,-15.72,119.86,12.99,-44.15,-7.13,-100.00,-48.41,-26.87,-44.70,-69.60,-36.36,-39.72,-46.32,-29.04
emp_industry_var[%],6.29,11.84,13.04,2.94,68.54,5.47,-0.83,17.61,10.42,31.24,42.08,36.60,36.36,12.42,11.81,25.18,25.42,7.55,23.71,20.52,4.48,18.64,10.21,43.50,16.69,40.40,20.03,3.28,14.94
emp_services_var[%],-1.54,-2.70,-4.04,-0.70,-13.70,-2.10,1.63,-2.81,-2.96,-5.26,-11.51,-14.41,-9.68,-2.85,-3.33,-9.02,-7.80,-1.45,-2.78,-3.29,0.26,-4.35,-4.58,-12.45,-5.82,-15.67,-10.87,-0.27,-4.28
emp_skilled_var[%],0.26,0.41,0.48,0.17,1.02,0.48,0.23,0.48,0.37,0.55,1.11,1.11,1.03,0.53,0.52,0.92,0.81,0.47,0.35,0.70,1.23,0.55,0.53,0.93,0.56,1.23,0.70,0.28,0.56
emp_total_var[%],0.26,0.41,0.48,0.17,1.02,0.48,0.23,0.48,0.37,0.55,1.11,1.11,1.03,0.53,0.52,0.92,0.81,0.47,0.35,0.72,1.15,0.55,0.53,0.93,0.56,1.23,0.69,0.28,0.57
emp_transport_var[%],-11.19,-12.09,-17.67,-4.89,-18.94,-4.03,-4.62,-23.86,-9.91,-3.94,-19.39,-21.23,-6.88,-13.14,-6.13,-3.37,-19.04,-21.74,-13.86,-21.69,7.78,-8.50,-6.47,-17.97,-10.79,-20.97,-7.07,0.11,-8.58
emp_unskilled_var[%],0.26,0.41,0.48,0.17,1.02,0.48,0.23,0.48,0.37,0.55,1.11,1.11,1.03,0.53,0.52,0.92,0.81,0.47,0.35,0.73,1.07,0.55,0.53,0.93,0.56,1.23,0.69,0.28,0.59
emp_wages-skilled_var[%],3.21,3.90,7.72,3.26,15.95,8.56,-1.52,6.13,5.46,7.30,17.24,24.11,18.21,11.12,6.08,17.08,11.84,2.64,6.43,7.99,2.47,6.98,6.17,14.42,9.18,30.92,12.99,1.44,7.42
emp_wages-unskilled_var[%],5.13,7.07,13.07,6.46,37.76,11.21,-1.02,11.01,9.99,16.88,34.89,38.62,32.70,14.04,10.81,32.27,23.73,8.89,11.91,16.65,3.78,13.19,11.30,29.40,16.63,45.54,22.44,3.39,15.19
