﻿Country,AT,BE,BG,CH,CY,CZ,DE,DK,EE,EL,ES,FI,FR,HR,HU,IE,IT,LT,LU,LV,MT,NL,PT,RO,SE,SI,SK,UK,EU
emp_agriculture_var[%],-12.52,-1.07,-4.24,-0.32,-21.61,-5.67,-8.13,4.70,-12.57,-17.40,-22.09,-4.81,-23.21,-1.67,-11.61,-12.26,-26.73,34.29,1.68,-15.29,-18.98,-8.03,-23.96,-19.43,-13.48,-38.04,-9.73,-3.52,-15.83
emp_energy_var[%],-5.99,-8.64,-57.87,-12.34,-81.35,-31.97,-14.32,-29.42,-3.22,-52.44,-38.47,-72.17,-52.02,-22.71,-28.89,-8.90,130.62,15.82,-41.44,4.88,-100.00,-46.28,-26.31,-42.45,-69.39,-32.64,-40.28,-44.41,-26.39
emp_industry_var[%],6.09,11.67,13.49,2.91,68.44,5.39,-0.98,17.61,10.45,30.23,42.21,37.04,36.33,11.91,11.76,25.35,25.65,7.71,23.63,21.31,4.38,18.63,10.28,43.55,16.67,40.96,20.50,3.09,14.90
emp_services_var[%],-1.12,-2.31,-3.44,-0.30,-13.40,-1.38,2.12,-2.12,-2.40,-4.82,-11.09,-13.66,-9.25,-2.22,-2.71,-8.37,-7.03,-0.71,-2.56,-2.26,0.73,-3.93,-4.04,-12.13,-5.26,-15.08,-10.38,0.16,-3.79
emp_skilled_var[%],0.27,0.42,0.50,0.18,1.03,0.50,0.25,0.50,0.39,0.56,1.12,1.13,1.03,0.55,0.54,0.95,0.82,0.50,0.36,0.72,1.30,0.56,0.55,0.95,0.57,1.25,0.72,0.29,0.57
emp_total_var[%],0.27,0.42,0.50,0.18,1.03,0.50,0.25,0.50,0.39,0.56,1.13,1.13,1.03,0.55,0.54,0.95,0.82,0.50,0.36,0.74,1.21,0.56,0.56,0.95,0.57,1.25,0.72,0.29,0.58
emp_transport_var[%],-14.16,-16.27,-23.81,-9.68,-21.74,-9.46,-8.33,-31.84,-13.21,-7.04,-24.06,-28.25,-11.07,-16.54,-9.64,-9.31,-25.65,-24.69,-16.06,-28.93,5.91,-12.75,-12.10,-21.21,-15.28,-28.70,-12.94,-4.66,-13.28
emp_unskilled_var[%],0.27,0.42,0.50,0.18,1.03,0.50,0.25,0.50,0.39,0.56,1.13,1.13,1.03,0.55,0.54,0.95,0.82,0.50,0.36,0.76,1.13,0.56,0.56,0.95,0.57,1.25,0.71,0.29,0.60
emp_wages-skilled_var[%],3.03,3.67,7.46,3.15,15.78,8.19,-1.89,6.06,5.28,7.11,17.08,23.98,17.52,10.95,5.82,16.81,11.69,2.30,6.44,7.50,2.31,6.81,5.82,14.13,9.05,30.82,12.77,1.24,7.12
emp_wages-unskilled_var[%],4.78,6.62,12.63,6.13,37.49,10.43,-1.59,10.64,9.54,16.39,34.47,37.85,31.77,13.39,10.27,31.76,23.03,8.16,11.79,15.84,3.52,12.69,10.78,28.87,16.07,45.02,22.04,2.97,14.61
