﻿Country,AT,BE,BG,CH,CY,CZ,DE,DK,EE,EL,ES,FI,FR,HR,HU,IE,IT,LT,LU,LV,MT,NL,PT,RO,SE,SI,SK,UK,EU
emp_agriculture_var[%],-2.43,11.23,3.62,3.21,-1.54,3.49,-0.13,15.84,-4.74,-8.83,-6.39,-4.80,-8.22,-0.54,-2.86,4.15,-9.03,29.98,0.84,-9.74,-7.27,-1.15,-10.40,5.48,0.30,-18.33,-1.64,4.34,-3.62
emp_energy_var[%],9.35,-9.80,-32.28,3.19,-58.11,-26.30,-10.33,-14.68,-3.67,-36.65,-28.57,-48.20,-54.73,-18.92,-21.71,-6.01,87.20,21.63,-30.73,-11.11,-100.00,-45.83,-5.76,-32.67,-41.26,-25.39,-29.75,-26.29,-19.61
emp_industry_var[%],2.33,4.43,12.36,2.17,35.63,2.71,-1.21,8.92,5.24,21.57,19.00,20.08,17.35,10.00,6.46,13.09,13.14,8.55,14.16,17.44,7.77,10.61,7.81,23.47,12.50,25.14,12.64,-1.41,7.16
emp_services_var[%],-0.34,-0.73,-4.66,-0.75,-7.04,-1.47,1.34,-1.17,-1.47,-3.81,-4.86,-7.41,-4.83,-2.53,-2.00,-5.05,-3.89,-2.39,-1.53,-3.57,-1.10,-2.54,-4.01,-6.87,-4.72,-9.75,-7.73,0.50,-2.06
emp_skilled_var[%],0.11,0.21,0.37,0.11,0.53,0.25,0.18,0.24,0.15,0.37,0.57,0.62,0.56,0.39,0.30,0.46,0.46,0.38,0.19,0.57,1.24,0.33,0.37,0.54,0.41,0.76,0.38,0.16,0.33
emp_total_var[%],0.11,0.21,0.37,0.11,0.53,0.25,0.18,0.24,0.15,0.37,0.58,0.62,0.56,0.39,0.30,0.46,0.46,0.38,0.19,0.58,1.19,0.33,0.37,0.54,0.41,0.76,0.38,0.16,0.33
emp_transport_var[%],-7.83,-7.10,-14.50,-1.15,-12.20,1.85,-1.73,-17.07,-5.87,0.03,-11.55,-14.43,0.85,-8.82,-2.74,-0.49,-11.37,-19.89,-9.85,-15.86,8.51,-2.84,-1.78,-10.28,-6.64,-13.59,0.78,4.40,-3.29
emp_unskilled_var[%],0.11,0.21,0.37,0.11,0.53,0.25,0.18,0.24,0.15,0.37,0.58,0.62,0.56,0.39,0.30,0.46,0.46,0.38,0.19,0.60,1.14,0.33,0.37,0.54,0.41,0.76,0.38,0.16,0.34
emp_wages-skilled_var[%],1.34,1.19,6.77,2.62,7.37,5.73,-1.23,3.00,3.08,5.25,6.41,11.69,7.83,8.19,3.59,8.78,5.53,2.65,3.91,7.45,3.44,4.11,5.25,6.85,6.79,17.18,8.76,0.29,3.48
emp_wages-unskilled_var[%],2.17,2.46,12.39,5.13,17.62,7.59,-0.83,5.34,5.45,12.17,13.58,18.58,14.87,10.60,6.48,15.99,11.54,8.48,6.98,15.27,5.77,7.89,9.57,14.79,12.58,25.43,15.16,1.22,7.48
