﻿Country,AT,BE,BG,CH,CY,CZ,DE,DK,EE,EL,ES,FI,FR,HR,HU,IE,IT,LT,LU,LV,MT,NL,PT,RO,SE,SI,SK,UK,EU
emp_agriculture_var[%],0.07,22.82,21.15,1.93,21.85,9.55,1.13,20.32,-0.15,3.64,4.28,3.32,3.69,0.77,2.21,11.74,6.32,48.50,4.95,0.00,-0.67,7.98,-0.09,32.25,7.90,-1.65,1.60,10.60,5.98
emp_energy_var[%],-18.61,-15.67,-43.70,0.02,-6.43,-13.97,-13.50,-27.83,-27.53,-6.21,-6.86,-23.24,-23.88,-8.39,-12.60,4.86,-19.28,-35.12,-27.95,-2.54,355.26,-8.64,-23.64,-38.60,-28.49,-12.11,-22.40,-13.92,-14.57
emp_industry_var[%],0.93,3.12,1.13,-0.04,-5.30,-0.05,0.31,3.09,0.62,2.87,1.59,3.01,2.08,0.50,0.53,6.26,0.39,2.54,-1.25,4.59,2.07,1.28,1.74,2.68,-0.07,1.93,3.83,0.96,1.21
emp_services_var[%],-0.76,-1.20,-0.97,-0.48,0.15,-0.35,-0.41,-1.42,-0.41,-0.91,-0.88,-1.98,-0.93,-0.27,-0.34,-3.96,-0.43,-1.52,-0.41,-2.62,-1.94,-0.71,-1.19,-1.46,-0.40,-1.02,-2.27,-0.58,-0.79
emp_skilled_var[%],-0.01,0.03,0.03,-0.02,-0.10,-0.01,-0.05,0.05,0.06,-0.02,0.00,0.05,0.03,-0.01,-0.01,0.19,-0.02,0.06,-0.01,0.08,-0.05,-0.01,0.03,0.03,-0.03,0.08,0.12,-0.02,0.00
emp_total_var[%],-0.01,0.03,0.03,-0.02,-0.10,-0.01,-0.05,0.05,0.06,-0.02,0.00,0.05,0.03,-0.01,-0.01,0.19,-0.02,0.06,-0.01,0.08,-0.05,-0.01,0.03,0.03,-0.03,0.08,0.12,-0.02,0.00
emp_transport_var[%],5.32,1.79,-7.39,6.29,7.66,1.70,2.54,4.66,2.67,4.42,2.61,3.37,2.87,0.81,0.47,11.28,1.07,-9.91,7.78,2.70,-4.68,2.18,2.19,0.80,2.72,3.08,0.42,3.41,2.82
emp_unskilled_var[%],-0.01,0.03,0.03,-0.02,-0.10,-0.01,-0.05,0.05,0.06,-0.02,0.00,0.05,0.03,-0.01,-0.01,0.19,-0.02,0.06,-0.01,0.08,-0.05,-0.01,0.03,0.03,-0.03,0.08,0.12,-0.02,0.00
emp_wages-skilled_var[%],0.57,0.98,1.00,0.37,-0.93,0.36,0.73,0.59,0.31,0.84,0.76,1.98,1.26,0.31,0.26,3.84,0.90,0.40,-0.50,2.69,0.17,0.69,1.34,0.91,0.09,1.04,1.82,0.77,0.93
emp_wages-unskilled_var[%],1.12,1.98,2.88,0.70,-1.76,0.90,1.21,1.86,0.60,1.51,1.42,3.50,2.31,0.52,0.65,7.29,1.49,3.18,-0.24,4.89,0.67,1.62,2.46,2.50,0.35,1.77,3.56,1.49,1.82
