﻿Country,AT,BE,BG,CH,CY,CZ,DE,DK,EE,EL,ES,FI,FR,HR,HU,IE,IT,LT,LU,LV,MT,NL,PT,RO,SE,SI,SK,UK,EU
emp_agriculture_var[%],-6.56,10.84,-6.00,-1.03,-17.64,-1.32,-2.63,9.90,-12.61,-19.78,-24.04,-6.59,-22.48,-5.91,-8.73,-4.93,-20.56,24.31,-3.77,-22.22,-14.23,-6.53,-17.73,-13.75,-1.87,-32.65,-10.61,3.26,-12.69
emp_energy_var[%],-11.34,-21.54,-63.69,-18.20,-62.92,-37.74,-19.67,-28.31,-34.87,-45.96,-37.80,-64.40,-49.48,-27.45,-38.84,-20.64,107.90,-32.15,-41.39,-36.69,-100.00,-53.65,-47.44,-61.30,-53.67,-41.36,-43.28,-34.78,-28.39
emp_industry_var[%],10.05,10.23,25.59,7.86,77.50,8.69,2.23,16.91,17.27,51.27,52.98,44.47,47.75,24.38,16.06,23.69,30.87,18.85,32.58,33.37,24.74,25.34,19.03,64.86,23.13,49.94,26.25,8.74,21.02
emp_services_var[%],-3.49,-2.50,-9.98,-2.50,-16.43,-3.53,-0.14,-3.48,-6.27,-8.98,-15.43,-18.67,-12.82,-6.82,-5.52,-9.23,-10.37,-6.99,-4.54,-10.32,-5.49,-6.15,-9.45,-19.39,-8.93,-20.92,-13.94,-1.83,-6.65
emp_skilled_var[%],0.31,0.29,0.82,0.35,1.08,0.59,0.20,0.40,0.56,0.80,1.22,1.30,1.18,0.78,0.52,0.83,0.92,0.64,0.45,0.98,0.57,0.59,0.72,1.27,0.71,1.48,0.86,0.27,0.62
emp_total_var[%],0.31,0.29,0.82,0.35,1.08,0.59,0.20,0.40,0.56,0.80,1.22,1.30,1.18,0.78,0.52,0.83,0.92,0.64,0.45,0.98,0.56,0.59,0.72,1.27,0.71,1.48,0.86,0.27,0.63
emp_transport_var[%],-9.48,-8.70,-18.54,-6.57,-14.49,-12.03,-6.35,-15.11,-9.57,-10.64,-17.79,-17.26,-12.78,-17.41,-6.32,2.18,-17.24,-21.67,-11.20,-11.64,-7.17,-12.82,-13.42,-21.30,-10.93,-15.43,-13.93,-4.28,-10.36
emp_unskilled_var[%],0.31,0.29,0.82,0.35,1.08,0.59,0.20,0.40,0.56,0.80,1.22,1.30,1.18,0.78,0.52,0.83,0.92,0.64,0.45,0.98,0.54,0.59,0.72,1.27,0.71,1.48,0.86,0.27,0.65
emp_wages-skilled_var[%],5.28,3.46,16.34,6.03,19.11,11.44,0.65,5.81,9.01,13.43,24.05,33.06,25.58,18.44,8.77,15.68,16.63,8.19,8.11,18.16,5.82,9.43,12.05,25.75,13.05,43.22,17.78,3.00,11.12
emp_wages-unskilled_var[%],8.39,6.23,28.60,12.84,44.69,15.45,2.42,10.75,17.27,29.78,47.95,53.09,44.86,25.27,15.51,29.69,32.28,19.35,15.92,35.24,12.41,17.68,22.48,51.18,24.24,64.47,30.63,5.67,21.90
